Order,Front,lon,lat,Note
8431,Am Rastplatz 1,15.54782035,46.83301208,Gralla
8431,Am Rastplatz 2,15.55259613,46.83154372,Gralla
8431,Arztgasse 1,15.5475599,46.82115353,Gralla
8431,Arztgasse 10,15.5495994,46.82152882,Gralla
8431,Arztgasse 12,15.5499268,46.82161149,Gralla
8431,Arztgasse 16,15.550498,46.82186783,Gralla
8431,Arztgasse 18,15.5507597,46.82194158,Gralla
8431,Arztgasse 18,15.55075972,46.82194158,Gralla
8431,Arztgasse 2,15.547929,46.82103158,Gralla
8431,Arztgasse 3,15.5477699,46.8212408,Gralla
8431,Arztgasse 4,15.5482141,46.82114023,Gralla
8431,Arztgasse 6,15.5488915,46.82133667,Gralla
8431,Arztgasse 9,15.5499774,46.82196482,Gralla
8431,Arztgasse 9,15.54997743,46.82196482,Gralla
8431,Auwaldweg 1,15.57342002,46.8254861,Gralla
8431,Auwaldweg 11,15.57513073,46.8238668,Gralla
8431,Auwaldweg 13,15.57546172,46.82413976,Gralla
8431,Auwaldweg 14,15.57583853,46.82312407,Gralla
8431,Auwaldweg 15,15.57611863,46.82383648,Gralla
8431,Auwaldweg 16,15.57624807,46.82289993,Gralla
8431,Auwaldweg 18,15.57648512,46.82271556,Gralla
8431,Auwaldweg 19,15.57664237,46.82329276,Gralla
8431,Auwaldweg 2,15.57306926,46.82526787,Gralla
8431,Auwaldweg 20,15.57683102,46.82248758,Gralla
8431,Auwaldweg 21,15.57691685,46.82305594,Gralla
8431,Auwaldweg 22,15.57722715,46.82221,Gralla
8431,Auwaldweg 23,15.57725468,46.82279632,Gralla
8431,Auwaldweg 24,15.57732727,46.82194952,Gralla
8431,Auwaldweg 25,15.57739164,46.8225253,Gralla
8431,Auwaldweg 3,15.5740101,46.82447984,Gralla
8431,Auwaldweg 4,15.57497908,46.82365503,Gralla
8431,Auwaldweg 5,15.5744598,46.82444748,Gralla
8431,Auwaldweg 6,15.5755063,46.82362732,Gralla
8431,Auwaldweg 8,15.57545021,46.82337606,Gralla
8431,Auwaldweg 9,15.57497344,46.82404539,Gralla
8431,Bienenweg 1,15.54980334,46.81595522,Gralla
8431,Birkenweg 10,15.55746307,46.80214922,Gralla
8431,Birkenweg 11,15.55807019,46.80268075,Gralla
8431,Birkenweg 12,15.55790368,46.80226367,Gralla
8431,Birkenweg 14,15.55824917,46.80237811,Gralla
8431,Birkenweg 17,15.55901995,46.80287107,Gralla
8431,Birkenweg 18,15.55905393,46.80257625,Gralla
8431,Birkenweg 2,15.55613214,46.80160475,Gralla
8431,Birkenweg 20,15.55952661,46.80276504,Gralla
8431,Birkenweg 3,15.55709291,46.80226481,Gralla
8431,Birkenweg 4,15.55631712,46.80180319,Gralla
8431,Birkenweg 6,15.55671796,46.80191306,Gralla
8431,Birkenweg 8,15.55706335,46.80201607,Gralla
8431,Blumenweg 1,15.57807142,46.81111057,Gralla
8431,Blumenweg 12,15.57988415,46.81156378,Gralla
8431,Blumenweg 16,15.5802282,46.81193919,Gralla
8431,Blumenweg 5,15.57882379,46.81147087,Gralla
8431,Blumenweg 6,15.5790599,46.81126464,Gralla
8431,Blütenweg 1,15.5486637,46.81897929,Gralla
8431,Blütenweg 13,15.5512568,46.82093067,Gralla
8431,Blütenweg 2,15.5497686,46.81984262,Gralla
8431,Blütenweg 3,15.548701,46.81916603,Gralla
8431,Blütenweg 5,15.5489802,46.81965118,Gralla
8431,Blütenweg 7,15.5495250,46.8204405,Gralla
8431,Blütenweg 8,15.5511944,46.82059822,Gralla
8431,Blütenweg 9,15.5502040,46.82050453,Gralla
8431,Bogenweg 1,15.5501992,46.81359763,Gralla
8431,Bogenweg 1,15.55019921,46.81359763,Gralla
8431,Brunnengasse 1,15.55298424,46.80501844,Gralla
8431,Brunnengasse 10,15.55202256,46.80480891,Gralla
8431,Brunnengasse 12,15.5516602,46.80469615,Gralla
8431,Brunnengasse 12,15.55166027,46.80469615,Gralla
8431,Brunnengasse 3,15.5526275,46.80503731,Gralla
8431,Brunnengasse 4,15.55247411,46.80530694,Gralla
8431,Brunnengasse 5,15.55243969,46.8046279,Gralla
8431,Brunnengasse 7,15.55199875,46.80452719,Gralla
8431,Brunnengasse 8,15.55234469,46.80488182,Gralla
8431,Eisplatzweg 1,15.55168207,46.8092613,Gralla
8431,Eisplatzweg 10,15.55465099,46.80982466,Gralla
8431,Eisplatzweg 11,15.5532597,46.80963957,Gralla
8431,Eisplatzweg 13,15.55349259,46.80965798,Gralla
8431,Eisplatzweg 14,15.55525831,46.80999271,Gralla
8431,Eisplatzweg 17,15.55494269,46.81014662,Gralla
8431,Eisplatzweg 2,15.55239204,46.80881046,Gralla
8431,Eisplatzweg 21,15.5564471,46.81069022,Gralla
8431,Eisplatzweg 3,15.55207169,46.80937066,Gralla
8431,Eisplatzweg 9,15.55305899,46.80974362,Gralla
8431,Elsterweg 1,15.55119627,46.80510927,Gralla
8431,Elsterweg 10,15.54923904,46.80486636,Gralla
8431,Elsterweg 11,15.54920433,46.80459671,Gralla
8431,Elsterweg 12,15.5482760,46.80461263,Gralla
8431,Elsterweg 12,15.54827606,46.80461263,Gralla
8431,Elsterweg 13,15.54890396,46.80453167,Gralla
8431,Elsterweg 14,15.5477145,46.80450064,Gralla
8431,Elsterweg 15,15.54854806,46.80447552,Gralla
8431,Elsterweg 23,15.54742994,46.80409874,Gralla
8431,Elsterweg 3,15.55094487,46.80498314,Gralla
8431,Elsterweg 4,15.55048571,46.8051796,Gralla
8431,Elsterweg 5,15.55066567,46.80486761,Gralla
8431,Elsterweg 7,15.55030044,46.80485791,Gralla
8431,Elsterweg 8,15.54959156,46.80496647,Gralla
8431,Engelgasse 1,15.55294743,46.81567777,Gralla
8431,Engelgasse 10,15.5518571,46.81567669,Gralla
8431,Engelgasse 10,15.55185713,46.81567669,Gralla
8431,Engelgasse 11,15.5514079,46.81510852,Gralla
8431,Engelgasse 11,15.55140797,46.81510852,Gralla
8431,Engelgasse 12,15.5515601,46.81554422,Gralla
8431,Engelgasse 12,15.55156018,46.81554422,Gralla
8431,Engelgasse 14,15.5512466,46.81544312,Gralla
8431,Engelgasse 14,15.55124665,46.81544312,Gralla
8431,Engelgasse 16,15.5509706,46.81540012,Gralla
8431,Engelgasse 16,15.55097067,46.81540012,Gralla
8431,Engelgasse 17,15.5513702,46.81394299,Gralla
8431,Engelgasse 17,15.55137028,46.81394299,Gralla
8431,Engelgasse 18,15.5505822,46.81530345,Gralla
8431,Engelgasse 18,15.55058226,46.81530345,Gralla
8431,Engelgasse 19,15.5516925,46.81423549,Gralla
8431,Engelgasse 19,15.55169255,46.81423549,Gralla
8431,Engelgasse 2,15.5531900,46.81606677,Gralla
8431,Engelgasse 2,15.55319009,46.81606677,Gralla
8431,Engelgasse 20,15.55037903,46.81523126,Gralla
8431,Engelgasse 21,15.5520596,46.81401995,Gralla
8431,Engelgasse 21,15.55205968,46.81401995,Gralla
8431,Engelgasse 22,15.55003294,46.81509009,Gralla
8431,Engelgasse 26,15.5500055,46.8147738,Gralla
8431,Engelgasse 26,15.55000558,46.8147738,Gralla
8431,Engelgasse 28,15.55037601,46.81483599,Gralla
8431,Engelgasse 3,15.5526881,46.81548448,Gralla
8431,Engelgasse 3,15.55268818,46.81548448,Gralla
8431,Engelgasse 30,15.5505903,46.81457479,Gralla
8431,Engelgasse 30,15.55059038,46.81457479,Gralla
8431,Engelgasse 4,15.5528659,46.81601004,Gralla
8431,Engelgasse 4,15.55286595,46.81601004,Gralla
8431,Engelgasse 5,15.55238589,46.81546631,Gralla
8431,Engelgasse 6,15.5526100,46.81589153,Gralla
8431,Engelgasse 6,15.55261006,46.81589153,Gralla
8431,Engelgasse 7,15.55201897,46.81532428,Gralla
8431,Engelgasse 8,15.5522606,46.81579082,Gralla
8431,Engelgasse 8,15.55226062,46.81579082,Gralla
8431,Engelgasse 9,15.5517014,46.81523728,Gralla
8431,Engelgasse 9,15.55170144,46.81523728,Gralla
8431,Enzianweg 1,15.5496029,46.81409863,Gralla
8431,Enzianweg 1,15.54960294,46.81409863,Gralla
8431,Enzianweg 2,15.55009639,46.81411713,Gralla
8431,Enzianweg 3,15.5496904,46.81428247,Gralla
8431,Enzianweg 3,15.54969041,46.81428247,Gralla
8431,Enzianweg 4,15.550386,46.81420601,Gralla
8431,Enzianweg 4,15.5503861,46.81420601,Gralla
8431,Enzianweg 5,15.5500531,46.81441179,Gralla
8431,Enzianweg 5,15.55005318,46.81441179,Gralla
8431,Enzianweg 6,15.550826,46.81432949,Gralla
8431,Enzianweg 6,15.5508264,46.81432949,Gralla
8431,Enzianweg 7,15.551017,46.81471868,Gralla
8431,Enzianweg 7,15.5510174,46.81471868,Gralla
8431,Enzianweg 9,15.55151173,46.81485736,Gralla
8431,Fassoldweg 1,15.56659626,46.80425683,Gralla
8431,Fassoldweg 14,15.5640830,46.80472269,Gralla
8431,Fassoldweg 14,15.56408309,46.80472269,Gralla
8431,Fassoldweg 2,15.5669309,46.80396736,Gralla
8431,Fassoldweg 4,15.56727929,46.80406541,Gralla
8431,Fassoldweg 5,15.56673496,46.80495743,Gralla
8431,Fassoldweg 6,15.56790708,46.80517705,Gralla
8431,Fassoldweg 8,15.56833384,46.80566936,Gralla
8431,Fassoldweg 9,15.56465679,46.80447352,Gralla
8431,Feldmüllerweg 1,15.57019192,46.81819256,Gralla
8431,Feldmüllerweg 2,15.56961262,46.8232531,Gralla
8431,Fichtenweg 3,15.5491137,46.81044105,Gralla
8431,Fichtenweg 3,15.54911372,46.81044105,Gralla
8431,Fichtenweg 4,15.5486767,46.81037229,Gralla
8431,Fichtenweg 4,15.54867672,46.81037229,Gralla
8431,Florianistraße 1,15.57864994,46.80845544,Gralla
8431,Florianistraße 12,15.58062977,46.8108641,Gralla
8431,Florianistraße 14,15.58115273,46.81134628,Gralla
8431,Florianistraße 4,15.57945487,46.80897989,Gralla
8431,Florianistraße 5,15.57908256,46.80939796,Gralla
8431,Florianistraße 6,15.57955483,46.80948483,Gralla
8431,Florianistraße 7,15.57909596,46.80991817,Gralla
8431,Gewerbepark Nord 1,15.55567746,46.80420322,Gralla
8431,Gewerbepark Nord 13,Gralla,,Gralla
8431,Gewerbepark Nord 15,15.56126764,46.80593793,Gralla
8431,Gewerbepark Nord 17,15.56214869,46.80625585,Gralla
8431,Gewerbepark Nord 19,15.5618674,46.80674096,Gralla
8431,Gewerbepark Nord 23,15.56004265,46.80625184,Gralla
8431,Gewerbepark Nord 3,15.55700078,46.80441788,Gralla
8431,Gewerbepark Nord 5,15.55759136,46.8046708,Gralla
8431,Gewerbepark Nord 7,15.55812489,46.8049657,Gralla
8431,Gewerbepark Süd 10,15.56055673,46.80480274,Gralla
8431,Gewerbepark Süd 14,15.56156562,46.80502934,Gralla
8431,Gewerbepark Süd 16,15.56272769,46.80529149,Gralla
8431,Gewerbepark Süd 18,15.56500906,46.80630709,Gralla
8431,Gewerbepark Süd 2,15.55606562,46.80327934,Gralla
8431,Gewerbepark Süd 20,15.56366873,46.80510697,Gralla
8431,Gewerbepark Süd 22,15.56416112,46.80523919,Gralla
8431,Gewerbepark Süd 24,15.56468563,46.8053791,Gralla
8431,Gewerbepark Süd 26,15.56545805,46.80557141,Gralla
8431,Gewerbepark Süd 28,15.56274503,46.80424562,Gralla
8431,Gewerbepark Süd 30,15.56305724,46.80406072,Gralla
8431,Gewerbepark Süd 32,15.56381493,46.80422784,Gralla
8431,Gewerbepark Süd 4,15.55766223,46.80411725,Gralla
8431,Gewerbepark Süd 6,15.55871791,46.80415015,Gralla
8431,Gewerbepark Süd 8,15.56016542,46.80469305,Gralla
8431,Globusallee 1,15.5523987,46.82074338,Gralla
8431,Globusallee 10,15.5532440,46.8204283,Gralla
8431,Globusallee 12,15.55337,46.82060972,Gralla
8431,Globusallee 14,15.5536129,46.82069196,Gralla
8431,Globusallee 16,15.5538704,46.82075282,Gralla
8431,Globusallee 2,15.5521380,46.82024883,Gralla
8431,Globusallee 3,15.5527692,46.82073198,Gralla
8431,Globusallee 4,15.5523710,46.82032239,Gralla
8431,Globusallee 5,15.553095,46.82084971,Gralla
8431,Globusallee 6,15.5526322,46.82048178,Gralla
8431,Globusallee 8,15.5528697,46.82046514,Gralla
8431,Grabenweg 2,15.5512309,46.80487149,Gralla
8431,Grabenweg 3,15.55003495,46.8042336,Gralla
8431,Grallaweg 1,15.55206983,46.80652368,Gralla
8431,Grallaweg 11,15.55178986,46.80517217,Gralla
8431,Grallaweg 13,15.55166239,46.80492842,Gralla
8431,Grallaweg 13a,15.55198857,46.80502061,Gralla
8431,Grallaweg 14,15.5510266,46.80444227,Gralla
8431,Grallaweg 14,15.55102662,46.80444227,Gralla
8431,Grallaweg 15,15.55147245,46.80405348,Gralla
8431,Grallaweg 17,15.55202692,46.8041843,Gralla
8431,Grallaweg 19,15.55211871,46.80400682,Gralla
8431,Grallaweg 25,15.5515813,46.80357675,Gralla
8431,Grallaweg 3,15.55222941,46.80625248,Gralla
8431,Grallaweg 6,15.5514933,46.80603433,Gralla
8431,Grallaweg 7,15.55196684,46.80562316,Gralla
8431,Grallaweg 8,15.55149163,46.80579765,Gralla
8431,Grallaweg 9,15.55206213,46.80543994,Gralla
8431,Grazer Straße 42b,15.54834521,46.81012326,Gralla
8431,Grazer Straße 42c,15.5483016,46.81087543,Gralla
8431,Grazer Straße 42e,15.5487884,46.81141626,Gralla
8431,Grazer Straße 42f,15.5489735,46.81168847,Gralla
8430,Grazerstraße 50,15.54939062,46.81313223,Neutillmitsch
8430,Grazerstraße 52,15.54925859,46.81330925,Neutillmitsch
8431,Grubenweg 10,15.5493631,46.81431341,Gralla
8431,Grubenweg 10,15.54936317,46.81431341,Gralla
8431,Grubenweg 18,15.5491449,46.81631447,Gralla
8431,Grubenweg 4,15.5497315,46.8138149,Gralla
8431,Grubenweg 4,15.54973156,46.8138149,Gralla
8431,Grubenweg 8,15.5497796,46.81460547,Gralla
8431,Grubenweg 8,15.54977965,46.81460547,Gralla
8431,Grünangerweg 1,15.56786347,46.8250391,Gralla
8431,Grünangerweg 2,15.56895542,46.8251774,Gralla
8431,Grünangerweg 5,15.56883454,46.82538349,Gralla
8431,Götzenauerweg 10,15.548658,46.82177278,Gralla
8431,Götzenauerweg 12,15.5489966,46.82189367,Gralla
8431,Götzenauerweg 14,15.5494039,46.82205371,Gralla
8431,Götzenauerweg 14,15.54940398,46.82205371,Gralla
8431,Götzenauerweg 16,15.5497104,46.82213947,Gralla
8431,Götzenauerweg 16,15.54971043,46.82213947,Gralla
8431,Götzenauerweg 18,15.5500211,46.82223165,Gralla
8431,Götzenauerweg 18,15.55002111,46.82223165,Gralla
8431,Götzenauerweg 2,15.5469825,46.82127936,Gralla
8431,Götzenauerweg 20,15.5503282,46.82235952,Gralla
8431,Götzenauerweg 20,15.55032825,46.82235952,Gralla
8431,Götzenauerweg 8,15.5481802,46.82159831,Gralla
8431,Gürtlweg 1,15.5535635,46.81656354,Gralla
8431,Gürtlweg 1,15.55356353,46.81656354,Gralla
8431,Gürtlweg 10,15.5516976,46.81650669,Gralla
8431,Gürtlweg 10,15.55169765,46.81650669,Gralla
8431,Gürtlweg 11,15.5526834,46.81635422,Gralla
8431,Gürtlweg 11,15.55268341,46.81635422,Gralla
8431,Gürtlweg 13,15.5525281,46.816299,Gralla
8431,Gürtlweg 13,15.55252815,46.816299,Gralla
8431,Gürtlweg 14,15.55129383,46.81618089,Gralla
8431,Gürtlweg 15,15.5523759,46.81624867,Gralla
8431,Gürtlweg 15,15.55237596,46.81624867,Gralla
8431,Gürtlweg 16,15.5512113,46.8163623,Gralla
8431,Gürtlweg 16,15.55121139,46.8163623,Gralla
8431,Gürtlweg 17,15.552214,46.81619881,Gralla
8431,Gürtlweg 17,15.5522146,46.81619881,Gralla
8431,Gürtlweg 18,15.5507097,46.81622024,Gralla
8431,Gürtlweg 18,15.55070977,46.81622024,Gralla
8431,Gürtlweg 19,15.5520508,46.81605088,Gralla
8431,Gürtlweg 19,15.55205086,46.81605088,Gralla
8431,Gürtlweg 21,15.5517552,46.81595989,Gralla
8431,Gürtlweg 21,15.55175526,46.81595989,Gralla
8431,Gürtlweg 22,15.5502426,46.81588637,Gralla
8431,Gürtlweg 22,15.55024265,46.81588637,Gralla
8431,Gürtlweg 23,15.5514403,46.81591896,Gralla
8431,Gürtlweg 23,15.55144033,46.81591896,Gralla
8431,Gürtlweg 24,15.5497823,46.81571211,Gralla
8431,Gürtlweg 24,15.54978238,46.81571211,Gralla
8431,Gürtlweg 26,15.5492208,46.81554885,Gralla
8431,Gürtlweg 26,15.54922081,46.81554885,Gralla
8431,Gürtlweg 29,15.5505886,46.81564119,Gralla
8431,Gürtlweg 29,15.55058861,46.81564119,Gralla
8431,Gürtlweg 3,15.5533249,46.81654508,Gralla
8431,Gürtlweg 3,15.55332493,46.81654508,Gralla
8431,Gürtlweg 4,15.5531546,46.81674964,Gralla
8431,Gürtlweg 4,15.55315463,46.81674964,Gralla
8431,Gürtlweg 5,15.5531697,46.81650138,Gralla
8431,Gürtlweg 5,15.55316976,46.81650138,Gralla
8431,Gürtlweg 7,15.5529909,46.81644124,Gralla
8431,Gürtlweg 7,15.55299099,46.81644124,Gralla
8431,Gürtlweg 8,15.5522879,46.81669568,Gralla
8431,Gürtlweg 8,15.55228796,46.81669568,Gralla
8431,Gürtlweg 9,15.5528491,46.81640951,Gralla
8431,Gürtlweg 9,15.55284915,46.81640951,Gralla
8431,Haasweg 1,15.5522236,46.82122632,Gralla
8431,Haasweg 2,15.5525312,46.82098429,Gralla
8431,Haasweg 3,15.5528232,46.82136643,Gralla
8431,Haasweg 4,15.5532330,46.82122045,Gralla
8431,Haasweg 5,15.5531983,46.82150204,Gralla
8431,Haasweg 6,15.5538482,46.82146187,Gralla
8431,Haasweg 7,15.5535048,46.82160156,Gralla
8431,Hauptstraße 11,15.5502783,46.81090989,Gralla
8431,Hauptstraße 11,15.5506178,46.81104391,Gralla
8431,Hauptstraße 12,15.549577,46.81044739,Gralla
8431,Hauptstraße 12,15.5495773,46.81044739,Gralla
8431,Hauptstraße 13,15.55071047,46.80989943,Gralla
8431,Hauptstraße 14,15.54978242,46.81030721,Gralla
8431,Hauptstraße 15,15.55161314,46.80986586,Gralla
8431,Hauptstraße 16,15.54921184,46.81009126,Gralla
8431,Hauptstraße 18,15.55021269,46.81001889,Gralla
8431,Hauptstraße 2,15.5491013,46.81186971,Gralla
8431,Hauptstraße 24,15.55033679,46.80935183,Gralla
8431,Hauptstraße 25,15.55176203,46.80798756,Gralla
8431,Hauptstraße 26,15.5503164,46.80907868,Gralla
8431,Hauptstraße 27,15.5520980,46.8079617,Gralla
8431,Hauptstraße 28,15.5505929,46.8089398,Gralla
8431,Hauptstraße 30,15.5507068,46.80875636,Gralla
8431,Hauptstraße 31,15.55197688,46.80741143,Gralla
8431,Hauptstraße 32,15.55077416,46.80819721,Gralla
8431,Hauptstraße 34,15.55152907,46.8071152,Gralla
8431,Hauptstraße 36,15.55172544,46.80676446,Gralla
8431,Hauptstraße 4,15.5492121,46.81175902,Gralla
8431,Hauptstraße 40,15.55260764,46.80563834,Gralla
8431,Hauptstraße 41,15.55287601,46.80611244,Gralla
8431,Hauptstraße 42,15.55309612,46.80479296,Gralla
8431,Hauptstraße 43,15.55298923,46.8059387,Gralla
8431,Hauptstraße 44,15.55312662,46.80451476,Gralla
8431,Hauptstraße 45,15.55344375,46.8061246,Gralla
8431,Hauptstraße 50,15.55339785,46.80431269,Gralla
8431,Hauptstraße 52,15.55317946,46.80330164,Gralla
8431,Hauptstraße 53,15.5534629,46.80505742,Gralla
8431,Hauptstraße 55,15.55386455,46.80467903,Gralla
8431,Hauptstraße 56,15.55444396,46.80265488,Gralla
8431,Hauptstraße 57,15.55394068,46.80448786,Gralla
8431,Hauptstraße 58,15.55411784,46.80231541,Gralla
8431,Hauptstraße 59,15.55419987,46.80424873,Gralla
8431,Hauptstraße 60,15.55384135,46.80210402,Gralla
8431,Hauptstraße 61,15.5544982,46.8043544,Gralla
8431,Hauptstraße 62,15.55486798,46.8020137,Gralla
8431,Hauptstraße 63,15.55455746,46.80403483,Gralla
8431,Hauptstraße 64,15.55488996,46.80172662,Gralla
8431,Hauptstraße 65,15.55533486,46.80273796,Gralla
8431,Hauptstraße 66,15.55451737,46.80165598,Gralla
8431,Hauptstraße 67,15.55522873,46.80232326,Gralla
8431,Hauptstraße 68,15.5549933,46.80118427,Gralla
8431,Hauptstraße 69,15.55622444,46.80259596,Gralla
8431,Hauptstraße 70,15.55544076,46.80099626,Gralla
8431,Hauptstraße 71,15.55636994,46.8024631,Gralla
8431,Hauptstraße 73,15.55535011,46.8021548,Gralla
8431,Hauptstraße 75,15.55558891,46.80183889,Gralla
8431,Hauptstraße 77,15.55606352,46.80143076,Gralla
8431,Hauptstraße 79,15.55675881,46.80132476,Gralla
8431,Hauptstraße 81,15.55631518,46.80107617,Gralla
8431,Hauptstraße 9,15.5502780,46.811156,Gralla
8431,Heckenstraße 1,15.57526021,46.80695042,Gralla
8431,Heckenstraße 2,15.57863426,46.80731426,Gralla
8431,Heckenstraße 3,15.57622979,46.80716654,Gralla
8431,Heckenstraße 7,15.57739558,46.80735823,Gralla
8431,Heckenstraße 9,15.57773428,46.80744881,Gralla
8431,Herrenstraße 1,15.5502141,46.81891538,Gralla
8431,Herrenstraße 102,15.54444694,46.82893943,Gralla
8431,Herrenstraße 106,15.54461396,46.82930211,Gralla
8431,Herrenstraße 108,15.5444469,46.82938812,Gralla
8431,Herrenstraße 11,15.5481239,46.81951422,Gralla
8431,Herrenstraße 110,15.544466,46.82946202,Gralla
8431,Herrenstraße 112,15.5467769,46.83009182,Gralla
8431,Herrenstraße 12,15.5491296,46.82025868,Gralla
8431,Herrenstraße 13,15.5487571,46.8200029,Gralla
8431,Herrenstraße 15,15.5482704,46.82007871,Gralla
8431,Herrenstraße 16,15.5474721,46.82084223,Gralla
8431,Herrenstraße 17,15.5481051,46.82012092,Gralla
8431,Herrenstraße 18,15.5464856,46.82146492,Gralla
8431,Herrenstraße 20,15.5464070,46.82157125,Gralla
8431,Herrenstraße 21,15.5468649,46.82006731,Gralla
8431,Herrenstraße 23,15.5474927,46.82029005,Gralla
8431,Herrenstraße 24,15.5465327,46.8219035,Gralla
8431,Herrenstraße 25,15.546854,46.82033647,Gralla
8431,Herrenstraße 26,15.5463756,46.82194317,Gralla
8431,Herrenstraße 28,15.5466790,46.82215845,Gralla
8431,Herrenstraße 28,15.54667902,46.82215845,Gralla
8431,Herrenstraße 29,15.5468371,46.82057797,Gralla
8431,Herrenstraße 3,15.549844,46.81913584,Gralla
8431,Herrenstraße 30,15.5472537,46.82237957,Gralla
8431,Herrenstraße 30,15.54725371,46.82237957,Gralla
8431,Herrenstraße 30a,15.54773491,46.82251457,Gralla
8431,Herrenstraße 31,15.5465283,46.82103101,Gralla
8431,Herrenstraße 32,15.5461181,46.82213255,Gralla
8431,Herrenstraße 32,15.54611813,46.82213255,Gralla
8431,Herrenstraße 36,15.54619513,46.82258312,Gralla
8431,Herrenstraße 38,15.54605724,46.82272861,Gralla
8431,Herrenstraße 40,15.54658106,46.8229151,Gralla
8431,Herrenstraße 42,15.54595971,46.82298952,Gralla
8431,Herrenstraße 44,15.54584969,46.82332528,Gralla
8431,Herrenstraße 46,15.54554613,46.82358783,Gralla
8431,Herrenstraße 5,15.5492741,46.81940196,Gralla
8431,Herrenstraße 56,15.54542847,46.82402456,Gralla
8431,Herrenstraße 66,15.54512183,46.82478201,Gralla
8431,Herrenstraße 7,15.5490347,46.81986933,Gralla
8431,Herrenstraße 74,15.54549017,46.82557264,Gralla
8431,Herrenstraße 76,15.54628586,46.82589109,Gralla
8431,Herrenstraße 78,15.54524814,46.82548093,Gralla
8431,Herrenstraße 8,15.5492268,46.82009068,Gralla
8431,Herrenstraße 80,15.5453426,46.82581351,Gralla
8431,Herrenstraße 82,15.54496654,46.82601439,Gralla
8431,Herrenstraße 84,15.54504682,46.82631314,Gralla
8431,Herrenstraße 85,15.5447534,46.82662397,Gralla
8431,Herrenstraße 86,15.5453058,46.82649079,Gralla
8431,Herrenstraße 87,15.54475381,46.82682862,Gralla
8431,Herrenstraße 92,15.54475473,46.82745327,Gralla
8431,Herrenstraße 94,15.54478485,46.82779449,Gralla
8431,Herrenstraße 96,15.54523218,46.82786496,Gralla
8431,Herrenstraße 98,15.54467274,46.82810181,Gralla
8431,Hofstraße 1,15.57710197,46.80932449,Gralla
8431,Hofstraße 3,15.57671935,46.80920699,Gralla
8431,Hofstraße 5,15.57716234,46.81041576,Gralla
8431,Hollerweg 12,15.5519460,46.81196543,Gralla
8431,Hollerweg 13,15.5526661,46.81249146,Gralla
8431,Hollerweg 15,15.5529268,46.8125832,Gralla
8431,Hollerweg 16,15.5524936,46.81215925,Gralla
8431,Hollerweg 18,15.5526678,46.81223124,Gralla
8431,Hollerweg 19,15.5535018,46.81268609,Gralla
8431,Hollerweg 21,15.5536591,46.81300578,Gralla
8431,Hollerweg 21,15.55365917,46.81300578,Gralla
8431,Hollerweg 24,15.5532966,46.81233296,Gralla
8431,Hollerweg 26,15.553378,46.81239055,Gralla
8431,Hollerweg 30,15.5537597,46.81257577,Gralla
8431,Hollerweg 32,15.5539353,46.812634,Gralla
8431,Hollerweg 34,15.5541387,46.81268531,Gralla
8431,Hollerweg 36,15.5543529,46.81272788,Gralla
8431,Hollerweg 5,15.5508032,46.81186692,Gralla
8431,Hollerweg 6,15.5512378,46.81160013,Gralla
8431,Hollerweg 7,15.5515245,46.8121178,Gralla
8431,Hollerweg 8,15.551655,46.81173792,Gralla
8431,Hollerweg 9,15.5521707,46.81231716,Gralla
8431,Holzerweg 1,15.5530787,46.81717569,Gralla
8431,Holzerweg 1,15.55307873,46.81717569,Gralla
8431,Holzerweg 10,15.5505636,46.81665309,Gralla
8431,Holzerweg 10,15.55056365,46.81665309,Gralla
8431,Holzerweg 11,15.5501146,46.81618458,Gralla
8431,Holzerweg 11,15.55011461,46.81618458,Gralla
8431,Holzerweg 12,15.5500636,46.81646165,Gralla
8431,Holzerweg 12,15.55006366,46.81646165,Gralla
8431,Holzerweg 13,15.5497765,46.81606649,Gralla
8431,Holzerweg 13,15.54977656,46.81606649,Gralla
8431,Holzerweg 16,15.5491017,46.81619399,Gralla
8431,Holzerweg 3,15.5529007,46.81708973,Gralla
8431,Holzerweg 3,15.55290072,46.81708973,Gralla
8431,Holzerweg 4,15.552264,46.81715347,Gralla
8431,Holzerweg 4,15.5522648,46.81715347,Gralla
8431,Holzerweg 5,15.5520935,46.81684421,Gralla
8431,Holzerweg 5,15.55209358,46.81684421,Gralla
8431,Holzerweg 6,15.5518760,46.8170372,Gralla
8431,Holzerweg 6,15.55187601,46.8170372,Gralla
8431,Holzerweg 8,15.5514276,46.81691044,Gralla
8431,Holzerweg 8,15.55142761,46.81691044,Gralla
8431,Kapellenstraße 1,15.57948286,46.80818929,Gralla
8431,Kapellenstraße 10,15.5820315,46.80951809,Gralla
8431,Kapellenstraße 11,15.58064663,46.8092766,Gralla
8431,Kapellenstraße 11,15.58076591,46.80914111,Gralla
8431,Kapellenstraße 12,15.58220833,46.80966183,Gralla
8431,Kapellenstraße 15,15.58127229,46.80963731,Gralla
8431,Kapellenstraße,15.5817876,46.81138834,Gralla
8431,Kapellenstraße 16,15.58294678,46.81022162,Gralla
8431,Kapellenstraße 17,15.58115908,46.80981566,Gralla
8431,Kapellenstraße 18,15.58361227,46.81082914,Gralla
8431,Kapellenstraße 2,15.58103808,46.80792978,Gralla
8431,Kapellenstraße 20,15.58328549,46.81086756,Gralla
8431,Kapellenstraße 21,15.58159042,46.81009512,Gralla
8431,Kapellenstraße 22,15.58337513,46.81135427,Gralla
8431,Kapellenstraße 24,15.58274042,46.81124511,Gralla
8431,Kapellenstraße 26,15.58246166,46.81150414,Gralla
8431,Kapellenstraße 28,15.58235687,46.81200837,Gralla
8431,Kapellenstraße 29,15.58211471,46.81111038,Gralla
8431,Kapellenstraße 30,15.58155305,46.81186778,Gralla
8431,Kapellenstraße 31,15.58192176,46.81123846,Gralla
8431,Kapellenstraße 32,15.58113615,46.81216647,Gralla
8431,Kapellenstraße 34,15.58081555,46.81234327,Gralla
8431,Kapellenstraße 34a,15.58121368,46.81267432,Gralla
8431,Kapellenstraße 36,15.58091905,46.81269028,Gralla
8431,Kapellenstraße 6,15.58160613,46.80929013,Gralla
8431,Kapellenstraße 7,15.58026133,46.8089102,Gralla
8431,Kapellenstraße 8,15.5817639,46.80940073,Gralla
8431,Kapellenstraße 9,15.58051488,46.80893562,Gralla
8431,Kerngastweg 10,15.5540563,46.82078099,Gralla
8431,Kerngastweg 12,15.5539006,46.82114433,Gralla
8431,Kirchbacher Straße 1,15.56698135,46.823449,Gralla
8431,Kirchbacher Straße 11,15.57112441,46.82467621,Gralla
8431,Kirchbacher Straße 5,15.56813801,46.82367868,Gralla
8431,Kirchbacher Straße 7,15.56862714,46.82395174,Gralla
8431,Kirchbacher Straße 9,15.56943811,46.82402392,Gralla
8431,Kleeweg 1,15.55296441,46.80686371,Gralla
8431,Kleeweg 3,15.55338919,46.80696908,Gralla
8431,Klärweg 1,15.58031099,46.81590546,Gralla
8431,Kornblumenweg 2,15.54619838,46.82313123,Gralla
8431,Kornblumenweg 6,15.5468758,46.82317422,Gralla
8431,Kräuterweg 1,15.54525014,46.82759594,Gralla
8431,Kräuterweg 3,15.54553039,46.82777239,Gralla
8431,Kräuterweg 5,15.54588908,46.827908,Gralla
8431,Lilienweg 1,15.5510546,46.81046769,Gralla
8431,Lilienweg 1,15.55105464,46.81046769,Gralla
8431,Lilienweg 11,15.552888,46.8111515,Gralla
8431,Lilienweg 12,15.5517992,46.810531,Gralla
8431,Lilienweg 12,15.55179921,46.810531,Gralla
8431,Lilienweg 13,15.5532794,46.81132913,Gralla
8431,Lilienweg 16,15.5522050,46.81068832,Gralla
8431,Lilienweg 16,15.55220505,46.81068832,Gralla
8431,Lilienweg 18,15.5524657,46.81073724,Gralla
8431,Lilienweg 2,15.55062702,46.8100964,Gralla
8431,Lilienweg 20,15.5525876,46.81075148,Gralla
8431,Lilienweg 24,15.5530698,46.81095628,Gralla
8431,Lilienweg 28,15.5537028,46.81119287,Gralla
8431,Lilienweg 3,15.5515403,46.81063402,Gralla
8431,Lilienweg 30,15.5541261,46.81128644,Gralla
8431,Lilienweg 32,15.5544915,46.81145148,Gralla
8431,Lilienweg 5,15.5517470,46.81071145,Gralla
8431,Lilienweg 7,15.5520270,46.81084398,Gralla
8431,Lilienweg 9,15.5524316,46.81096333,Gralla
8431,Listweg 2,15.55317103,46.81031137,Gralla
8431,Listweg 4,15.55264304,46.81010248,Gralla
8431,Marienweg 2,15.55085234,46.80858644,Gralla
8431,Marienweg 3,15.54963147,46.80830442,Gralla
8431,Marienweg 5,15.5496042,46.80856933,Gralla
8431,Marienweg 6,15.54990349,46.80849987,Gralla
8431,Mitterweg 1,15.58214177,46.81006484,Gralla
8431,Mitterweg 12,15.57957823,46.81115202,Gralla
8431,Mitterweg 3,15.58106877,46.80994037,Gralla
8431,Mitterweg 5,15.58075499,46.81023021,Gralla
8431,Mitterweg 6,15.58200297,46.81057459,Gralla
8431,Mitterweg 8,15.58148324,46.81060112,Gralla
8431,Mühlweg 24,15.55143853,46.80732327,Gralla
8431,Nelkenweg 1,15.547884,46.82048138,Gralla
8431,Nelkenweg 11,15.550142,46.82114575,Gralla
8431,Nelkenweg 12,15.5504861,46.82093222,Gralla
8431,Nelkenweg 5,15.5488778,46.82068729,Gralla
8431,Nelkenweg 6,15.5494027,46.82063692,Gralla
8431,Nelkenweg 7,15.5493072,46.82089713,Gralla
8431,Nelkenweg 8,15.5497813,46.82073847,Gralla
8431,Nelkenweg 9,15.5497580,46.82103345,Gralla
8431,Obere Dorfstraße 1,15.554377,46.81519478,Gralla
8431,Obere Dorfstraße 1,15.5543773,46.81519478,Gralla
8431,Obere Dorfstraße,15.5544801,46.81476019,Gralla
8431,Obere Dorfstraße 10,15.5544390,46.81586158,Gralla
8431,Obere Dorfstraße 10,15.55443905,46.81586158,Gralla
8431,Obere Dorfstraße 10a,15.5549492,46.81588035,Gralla
8431,Obere Dorfstraße 10a,15.55494928,46.81588035,Gralla
8431,Obere Dorfstraße 11,15.552735,46.81766863,Gralla
8431,Obere Dorfstraße 11,15.5527356,46.81766863,Gralla
8431,Obere Dorfstraße 12,15.5542942,46.8161524,Gralla
8431,Obere Dorfstraße 12,15.55429424,46.8161524,Gralla
8431,Obere Dorfstraße 13,15.5520422,46.81775869,Gralla
8431,Obere Dorfstraße 13,15.55204229,46.81775869,Gralla
8431,Obere Dorfstraße 14,15.55415,46.81636969,Gralla
8431,Obere Dorfstraße 14,15.554156,46.81636969,Gralla
8431,Obere Dorfstraße 15,15.5527449,46.81803507,Gralla
8431,Obere Dorfstraße 15,15.55274495,46.81803507,Gralla
8431,Obere Dorfstraße,15.55448017,46.81476019,Gralla
8431,Obere Dorfstraße 16,15.5541539,46.81673372,Gralla
8431,Obere Dorfstraße 16,15.55415399,46.81673372,Gralla
8431,Obere Dorfstraße 18,15.5538455,46.81699724,Gralla
8431,Obere Dorfstraße 18,15.55384552,46.81699724,Gralla
8431,Obere Dorfstraße 19,15.5526171,46.81842478,Gralla
8431,Obere Dorfstraße 19,15.55261716,46.81842478,Gralla
8431,Obere Dorfstraße 2,15.554896,46.81498045,Gralla
8431,Obere Dorfstraße 2,15.5548968,46.81498045,Gralla
8431,Obere Dorfstraße 20,15.5541195,46.817327,Gralla
8431,Obere Dorfstraße 20,15.55411958,46.817327,Gralla
8431,Obere Dorfstraße 22,15.5541456,46.81755188,Gralla
8431,Obere Dorfstraße 22,15.55414567,46.81755188,Gralla
8431,Obere Dorfstraße 24,15.5538113,46.81777323,Gralla
8431,Obere Dorfstraße 24,15.55381133,46.81777323,Gralla
8431,Obere Dorfstraße 26,15.5536773,46.81813896,Gralla
8431,Obere Dorfstraße 26,15.55367735,46.81813896,Gralla
8431,Obere Dorfstraße 27,15.5519355,46.81938775,Gralla
8431,Obere Dorfstraße 28,15.5538099,46.81838266,Gralla
8431,Obere Dorfstraße 28,15.55380996,46.81838266,Gralla
8431,Obere Dorfstraße 29,15.5517738,46.81978964,Gralla
8431,Obere Dorfstraße 3,15.55379399,46.8159877,Gralla
8431,Obere Dorfstraße 30,15.5538105,46.81858326,Gralla
8431,Obere Dorfstraße 31,15.5515733,46.82019648,Gralla
8431,Obere Dorfstraße 32,15.5526924,46.81897708,Gralla
8431,Obere Dorfstraße 34,15.5526015,46.81928572,Gralla
8431,Obere Dorfstraße 35,15.5511115,46.82116751,Gralla
8431,Obere Dorfstraße 37,15.5509921,46.82127752,Gralla
8431,Obere Dorfstraße 38,15.5522821,46.81970325,Gralla
8431,Obere Dorfstraße 4,15.55499498,46.81520385,Gralla
8431,Obere Dorfstraße 40,15.5522174,46.81996161,Gralla
8431,Obere Dorfstraße 41,15.5501861,46.82204172,Gralla
8431,Obere Dorfstraße 41,15.55018611,46.82204172,Gralla
8431,Obere Dorfstraße 42,15.5528716,46.81999505,Gralla
8431,Obere Dorfstraße 44,15.5530258,46.820203,Gralla
8431,Obere Dorfstraße 46,15.5520639,46.82068244,Gralla
8431,Obere Dorfstraße 5,15.5536460,46.81623928,Gralla
8431,Obere Dorfstraße 5,15.55364607,46.81623928,Gralla
8431,Obere Dorfstraße 50,15.5516844,46.82143519,Gralla
8431,Obere Dorfstraße 52,15.5514733,46.82153269,Gralla
8431,Obere Dorfstraße 54,15.5512876,46.82168434,Gralla
8431,Obere Dorfstraße 56,15.5510826,46.82212209,Gralla
8431,Obere Dorfstraße 56,15.55108262,46.82212209,Gralla
8431,Obere Dorfstraße 6,15.5547137,46.8153347,Gralla
8431,Obere Dorfstraße 6,15.5550390,46.81553365,Gralla
8431,Obere Dorfstraße 6,15.55471373,46.8153347,Gralla
8431,Obere Dorfstraße 6,15.55503908,46.81553365,Gralla
8431,Obere Dorfstraße 6,15.55541484,46.81559073,Gralla
8431,Obere Dorfstraße 7,15.5532616,46.81702411,Gralla
8431,Obere Dorfstraße 7,15.55326163,46.81702411,Gralla
8431,Obere Dorfstraße 8,15.5546609,46.81556058,Gralla
8431,Obere Dorfstraße 8,15.55466093,46.81556058,Gralla
8431,Obere Murstraße 1,15.57075626,46.82467708,Gralla
8431,Obere Murstraße 11,15.56866635,46.82533117,Gralla
8431,Obere Murstraße 13,15.56894889,46.82563612,Gralla
8431,Obere Murstraße 15,15.56864877,46.82554416,Gralla
8431,Obere Murstraße 17,15.56839953,46.82566176,Gralla
8431,Obere Murstraße 19,15.5686854,46.82573331,Gralla
8431,Obere Murstraße 2,15.5666588,46.82744682,Gralla
8431,Obere Murstraße 21,15.56882839,46.82581522,Gralla
8431,Obere Murstraße 23,15.56816447,46.82608171,Gralla
8431,Obere Murstraße 25,15.56800315,46.82639349,Gralla
8431,Obere Murstraße 27,15.56702098,46.82643178,Gralla
8431,Obere Murstraße 3,15.57004933,46.82468836,Gralla
8431,Obere Murstraße 31,15.56659179,46.82679726,Gralla
8431,Obere Murstraße 33,15.56617455,46.82697787,Gralla
8431,Obere Murstraße 35,15.56581465,46.82687749,Gralla
8431,Obere Murstraße 37,15.56537937,46.8275672,Gralla
8431,Obere Murstraße 5,15.57004081,46.82490096,Gralla
8431,Obere Murstraße 9,15.56860763,46.82486176,Gralla
8431,Ortnerweg 1,15.57274377,46.82598632,Gralla
8431,Ortnerweg 2,15.57092814,46.8263717,Gralla
8431,Panoramaweg 10,15.57920382,46.8120356,Gralla
8431,Panoramaweg 12,15.57964348,46.8123197,Gralla
8431,Panoramaweg 2,15.57766342,46.8112499,Gralla
8431,Panoramaweg 4,15.57804646,46.81146959,Gralla
8431,Panoramaweg 6,15.57845377,46.81163978,Gralla
8431,Panoramaweg 8,15.57888152,46.81185697,Gralla
8431,Pichlerstraße 2,15.56335393,46.80658783,Gralla
8431,Pichlerstraße 6,15.56332822,46.80736783,Gralla
8431,Rebenweg 1,15.55118767,46.80424151,Gralla
8431,Rebenweg 11,15.54936061,46.80376121,Gralla
8431,Rebenweg 3,15.55074387,46.80413052,Gralla
8431,Rebenweg 5,15.55035234,46.80402889,Gralla
8431,Rebenweg 7,15.54999984,46.80394551,Gralla
8431,Rebenweg 9,15.54966071,46.80384423,Gralla
8431,Rosenweg 2,15.5525086,46.81160883,Gralla
8431,Rosenweg 4,15.5537839,46.81207156,Gralla
8431,Rupertistraße 1,15.5546393,46.81382224,Gralla
8431,Rupertistraße 1,15.55463933,46.81382224,Gralla
8431,Rupertistraße 13,15.5552867,46.81209369,Gralla
8431,Rupertistraße 14,15.5540715,46.81079041,Gralla
8431,Rupertistraße 16,15.5541211,46.81063936,Gralla
8431,Rupertistraße 16,15.55412114,46.81063936,Gralla
8431,Rupertistraße 17,15.5544963,46.81074096,Gralla
8431,Rupertistraße 19,15.5551682,46.8106932,Gralla
8431,Rupertistraße 2,15.5544266,46.81411071,Gralla
8431,Rupertistraße 2,15.55442669,46.81411071,Gralla
8431,Rupertistraße 20,15.55384825,46.81005045,Gralla
8431,Rupertistraße 22,15.55244823,46.80854997,Gralla
8431,Rupertistraße 23,15.5543312,46.8101187,Gralla
8431,Rupertistraße 26,15.55263925,46.80812607,Gralla
8431,Rupertistraße 27,15.55413881,46.80963676,Gralla
8431,Rupertistraße 29,15.55399077,46.8093649,Gralla
8431,Rupertistraße 31,15.55381398,46.80913394,Gralla
8431,Rupertistraße 33,15.55355962,46.80864978,Gralla
8431,Rupertistraße 35,15.55310199,46.80824312,Gralla
8431,Rupertistraße 5,15.5548230,46.81340242,Gralla
8431,Rupertistraße 5,15.55482309,46.81340242,Gralla
8431,Rupertistraße 6,15.5542810,46.81318211,Gralla
8431,Rupertistraße 6,15.55428108,46.81318211,Gralla
8431,Rupertistraße 7,15.55474319,46.81304755,Gralla
8431,Rupertistraße 8,15.5544960,46.81232704,Gralla
8431,Rupertistraße 9,15.5550032,46.812814,Gralla
8431,Salamanderweg 10,15.54987409,46.80645302,Gralla
8431,Salamanderweg 2,15.55117017,46.80681346,Gralla
8431,Schulstraße 1,15.54971053,46.81322591,Gralla
8431,Schulstraße 10,15.5512163,46.81307523,Gralla
8431,Schulstraße 10,15.55121637,46.81307523,Gralla
8431,Schulstraße 11,15.5574708,46.81587127,Gralla
8431,Schulstraße 11,15.55747087,46.81587127,Gralla
8431,Schulstraße 12,15.5518033,46.81325916,Gralla
8431,Schulstraße 12,15.55180331,46.81325916,Gralla
8431,Schulstraße 13,15.5584925,46.8161954,Gralla
8431,Schulstraße 13,15.55849257,46.8161954,Gralla
8431,Schulstraße 14,15.5522207,46.81338796,Gralla
8431,Schulstraße 14,15.55222072,46.81338796,Gralla
8431,Schulstraße 15,15.5571200,46.81597548,Gralla
8431,Schulstraße 15,15.55712003,46.81597548,Gralla
8431,Schulstraße 16,15.5524743,46.81367998,Gralla
8431,Schulstraße 16,15.55247434,46.81367998,Gralla
8431,Schulstraße 18,15.55310696,46.81389525,Gralla
8431,Schulstraße 2,15.5499503,46.81286171,Gralla
8431,Schulstraße 22,15.55287076,46.81390128,Gralla
8431,Schulstraße 24,15.5533768,46.81411146,Gralla
8431,Schulstraße 24,15.55337688,46.81411146,Gralla
8431,Schulstraße 26,15.5539152,46.81416686,Gralla
8431,Schulstraße 26,15.55391526,46.81416686,Gralla
8431,Schulstraße 28,15.55645713,46.81514159,Gralla
8431,Schulstraße 3,15.5528692,46.81422402,Gralla
8431,Schulstraße 3,15.55286922,46.81422402,Gralla
8431,Schulstraße 30,15.55709096,46.81533904,Gralla
8431,Schulstraße 4,15.5503439,46.81299125,Gralla
8431,Schulstraße 4,15.55034392,46.81299125,Gralla
8431,Schulstraße 5,15.5533953,46.81440843,Gralla
8431,Schulstraße 5,15.55339537,46.81440843,Gralla
8431,Schulstraße 6,15.55053931,46.81309685,Gralla
8431,Schulstraße 7,15.5539949,46.81469867,Gralla
8431,Schulstraße 7,15.55399494,46.81469867,Gralla
8431,Schulstraße 8,15.5513426,46.81339993,Gralla
8431,Schulstraße 8,15.55134268,46.81339993,Gralla
8431,Schützenweg 1,15.57870368,46.80943342,Gralla
8431,Schützenweg 5,15.57853423,46.80990312,Gralla
8431,Schützenweg 9,15.57767664,46.81065476,Gralla
8431,Sommergasse 1,15.55086739,46.80729111,Gralla
8431,Sommergasse 10,15.54862286,46.8068905,Gralla
8431,Sommergasse 11,15.54967607,46.80691637,Gralla
8431,Sommergasse 12,15.54805748,46.80675159,Gralla
8431,Sommergasse 14,15.54758968,46.80659698,Gralla
8431,Sommergasse 16,15.54754481,46.80628758,Gralla
8431,Sommergasse 17,15.54858315,46.80657737,Gralla
8431,Sommergasse 18,15.54768126,46.80604942,Gralla
8431,Sommergasse 19,15.5483754,46.80653897,Gralla
8431,Sommergasse 2,15.55049915,46.80746876,Gralla
8431,Sommergasse 21,15.54851379,46.8063118,Gralla
8431,Sommergasse 23,15.54804365,46.80645204,Gralla
8431,Sommergasse 25,15.54823548,46.80621651,Gralla
8431,Sommergasse 4,15.55024121,46.80734169,Gralla
8431,Sommergasse 6,15.54970074,46.80723731,Gralla
8431,Sommergasse 7,15.5502525,46.80703385,Gralla
8431,Sommergasse 8,15.5493198,46.80707269,Gralla
8431,Sommergasse 9,15.54998689,46.80696546,Gralla
8431,Sonnenring 1,15.55321047,46.80804488,Gralla
8431,Sonnenring 10,15.55410305,46.80799134,Gralla
8431,Sonnenring 11,15.55458713,46.8078026,Gralla
8431,Sonnenring 12,15.55438506,46.80805012,Gralla
8431,Sonnenring 14,15.55461301,46.80816835,Gralla
8431,Sonnenring 15,15.55363929,46.80742973,Gralla
8431,Sonnenring 16,15.55309721,46.80751652,Gralla
8431,Sonnenring 17,15.5531877,46.80724827,Gralla
8431,Sonnenring 4,15.5533737,46.80774771,Gralla
8431,Sonnenring 5,15.55430592,46.80841227,Gralla
8431,Sonnenring 6,15.55361647,46.80782889,Gralla
8431,Sportplatzstraße 1,15.5481538,46.81908814,Gralla
8431,Sportplatzstraße 10,15.5531643,46.81861752,Gralla
8431,Sportplatzstraße 2,15.547836,46.81842227,Gralla
8431,Sportplatzstraße 3,15.549873,46.81889505,Gralla
8431,Sportplatzstraße 4,15.54879,46.81868981,Gralla
8431,Sportplatzstraße 6,15.5493507,46.81876651,Gralla
8431,Sportplatzstraße 7,15.5519769,46.81863989,Gralla
8431,Sportplatzstraße 8,15.551569,46.81840303,Gralla
8431,Sportplatzstraße 8,15.5515697,46.81840303,Gralla
8431,Sternenring 1,15.5540094,46.81501739,Gralla
8431,Sternenring 1,15.55400945,46.81501739,Gralla
8431,Sternenring 11,15.5517436,46.81492165,Gralla
8431,Sternenring 11,15.55174363,46.81492165,Gralla
8431,Sternenring 12,15.5522754,46.8150345,Gralla
8431,Sternenring 12,15.55227541,46.8150345,Gralla
8431,Sternenring 13,15.5533401,46.81578211,Gralla
8431,Sternenring 13,15.55334019,46.81578211,Gralla
8431,Sternenring 14,15.5527089,46.81518427,Gralla
8431,Sternenring 14,15.55270891,46.81518427,Gralla
8431,Sternenring 16,15.55289105,46.81531055,Gralla
8431,Sternenring 18,15.5534234,46.81547179,Gralla
8431,Sternenring 18,15.55342344,46.81547179,Gralla
8431,Sternenring 2,15.5541569,46.81546466,Gralla
8431,Sternenring 2,15.55415693,46.81546466,Gralla
8431,Sternenring 20,15.5537471,46.81559553,Gralla
8431,Sternenring 20,15.55374713,46.81559553,Gralla
8431,Sternenring 22,15.554098,46.81570138,Gralla
8431,Sternenring 22,15.5540982,46.81570138,Gralla
8431,Sternenring 4,15.5538176,46.81534262,Gralla
8431,Sternenring 4,15.55381763,46.81534262,Gralla
8431,Sternenring 6,15.55336091,46.81514024,Gralla
8431,Sternenring 7,15.553613,46.81495901,Gralla
8431,Sternenring 7,15.5536138,46.81495901,Gralla
8431,Sternäckerweg 1,15.55354421,46.80372368,Gralla
8431,Sternäckerweg 7,15.5518055,46.80328459,Gralla
8431,Sturmweg 3,15.5474456,46.81901354,Gralla
8431,Sturmweg 7,15.54733,46.81946927,Gralla
8431,Untere Dorfstraße 1,15.55537624,46.81469983,Gralla
8431,Untere Dorfstraße 10,15.5551894,46.81321143,Gralla
8431,Untere Dorfstraße 10,15.55518945,46.81321143,Gralla
8431,Untere Dorfstraße 11,15.5556387,46.81355362,Gralla
8431,Untere Dorfstraße 11,15.55563876,46.81355362,Gralla
8431,Untere Dorfstraße 13,15.55621164,46.81346982,Gralla
8431,Untere Dorfstraße 15,15.55617862,46.81315323,Gralla
8431,Untere Dorfstraße 16,15.5554942,46.81260506,Gralla
8431,Untere Dorfstraße 17,15.5564685,46.81305527,Gralla
8431,Untere Dorfstraße 17,15.55646855,46.81305527,Gralla
8431,Untere Dorfstraße 19,15.5565678,46.81269442,Gralla
8431,Untere Dorfstraße 23,15.5562834,46.81241722,Gralla
8431,Untere Dorfstraße 25,15.5563349,46.81188144,Gralla
8431,Untere Dorfstraße 28,15.5562684,46.8110257,Gralla
8431,Untere Dorfstraße 28,15.5562753,46.81102809,Gralla
8431,Untere Dorfstraße 3,15.5552794,46.81437785,Gralla
8431,Untere Dorfstraße 3,15.55527948,46.81437785,Gralla
8431,Untere Dorfstraße 30,15.5559283,46.8109167,Gralla
8431,Untere Dorfstraße 30,15.5559284,46.81091193,Gralla
8431,Untere Dorfstraße 31,15.5573414,46.81181084,Gralla
8431,Untere Dorfstraße 4,15.5549101,46.81387663,Gralla
8431,Untere Dorfstraße 4,15.55491016,46.81387663,Gralla
8431,Untere Dorfstraße 5,15.5559413,46.81449481,Gralla
8431,Untere Dorfstraße 5,15.55566343,46.81426677,Gralla
8431,Untere Dorfstraße 5,15.55594132,46.81449481,Gralla
8431,Untere Dorfstraße 6,15.55487716,46.81362201,Gralla
8431,Untere Dorfstraße 9,15.5553225,46.81382592,Gralla
8431,Untere Dorfstraße 9,15.55532259,46.81382592,Gralla
8431,Untere Murstraße 1,15.57211362,46.82416603,Gralla
8431,Untere Murstraße 16,15.57158917,46.82289832,Gralla
8431,Untere Murstraße 18,15.57187099,46.82274557,Gralla
8431,Untere Murstraße 2,15.57125567,46.82423649,Gralla
8431,Untere Murstraße 20,15.57238078,46.82257788,Gralla
8431,Untere Murstraße 22,15.57220113,46.82239173,Gralla
8431,Untere Murstraße 24,15.57263596,46.82204831,Gralla
8431,Untere Murstraße 26,15.57203761,46.82189994,Gralla
8431,Untere Murstraße 28,15.57298977,46.82191052,Gralla
8431,Untere Murstraße 30,15.57313985,46.82180646,Gralla
8431,Untere Murstraße 32,15.57289227,46.82166061,Gralla
8431,Untere Murstraße 34,15.57319094,46.82154881,Gralla
8431,Untere Murstraße 36,15.57332248,46.82132858,Gralla
8431,Untere Murstraße 38,15.57330799,46.82113022,Gralla
8431,Untere Murstraße 42,15.57392377,46.82008231,Gralla
8431,Untere Murstraße 44,15.57499109,46.81907113,Gralla
8431,Untere Murstraße 6,15.57135964,46.82390058,Gralla
8431,Veilchenweg 2,15.5494923,46.81000495,Gralla
8431,Veilchenweg 5,15.54894877,46.80954244,Gralla
8431,Veilchenweg 6,15.54844912,46.80966494,Gralla
8431,Veilchenweg 7,15.54863515,46.80948631,Gralla
